<?xml version="1.0" encoding="UTF-8" standalone="no"?>
<svg
   xmlns:dc="http://purl.org/dc/elements/1.1/"
   xmlns:cc="http://creativecommons.org/ns#"
   xmlns:rdf="http://www.w3.org/1999/02/22-rdf-syntax-ns#"
   xmlns:svg="http://www.w3.org/2000/svg"
   xmlns="http://www.w3.org/2000/svg"
   xmlns:sodipodi="http://sodipodi.sourceforge.net/DTD/sodipodi-0.dtd"
   xmlns:inkscape="http://www.inkscape.org/namespaces/inkscape"
   inkscape:version="1.0beta2 (2b71d25, 2019-12-03)"
   sodipodi:docname="bug.svg"
   id="svg78"
   version="1.1"
   viewBox="0 0 32 32"
   data-name="Layer 13">
  <metadata
     id="metadata84">
    <rdf:RDF>
      <cc:Work
         rdf:about="">
        <dc:format>image/svg+xml</dc:format>
        <dc:type
           rdf:resource="http://purl.org/dc/dcmitype/StillImage" />
      </cc:Work>
    </rdf:RDF>
  </metadata>
  <defs
     id="defs82" />
  <sodipodi:namedview
     inkscape:current-layer="svg78"
     inkscape:window-maximized="0"
     inkscape:window-y="23"
     inkscape:window-x="1024"
     inkscape:cy="16"
     inkscape:cx="8.9113924"
     inkscape:zoom="27.15625"
     showgrid="false"
     id="namedview80"
     inkscape:window-height="1035"
     inkscape:window-width="1280"
     inkscape:pageshadow="2"
     inkscape:pageopacity="0"
     guidetolerance="10"
     gridtolerance="10"
     objecttolerance="10"
     borderopacity="1"
     inkscape:document-rotation="0"
     bordercolor="#666666"
     pagecolor="#ffffff" />
  <path
     style="fill:#cc3333;fill-opacity:1"
     id="path76"
     d="M28.68 18.35h-2.79V18a9.37 9.37 0 0 0-.89-4l2.38-1.61a1.18 1.18 0 1 0-1.32-2L23.75 12a9.52 9.52 0 0 0-1.65-1.57v-.36a5.89 5.89 0 0 0-1.79-4.23c2-2.11 2.7-1.71 4-1l.3.16a1.18 1.18 0 0 0 1.19-2l-.28-.16c-2-1.17-3.93-1.84-7.2 1.71a5.79 5.79 0 0 0-4.43.08c-3.32-3.65-5.27-3-7.28-1.8L6.33 3a1.18 1.18 0 1 0 1.19 2l.29-.17c1.31-.77 2-1.18 4.13 1.13a5.88 5.88 0 0 0-1.63 4.06v.35a9.51 9.51 0 0 0-1.45 1.43l-2.12-1.43a1.18 1.18 0 0 0-1.32 2l2.13 1.44a9.37 9.37 0 0 0-1 4.21v.3H4.12a1.18 1.18 0 1 0 0 2.37h2.42V21a9.35 9.35 0 0 0 1.1 4.39l-1.87 1.36a1.18 1.18 0 0 0 1.38 1.92L9 27.32a9.41 9.41 0 0 0 4.28 2.74 1.18 1.18 0 0 0 1.52-1.13v-8.7h2.79v8.69A1.18 1.18 0 0 0 19.14 30a9.42 9.42 0 0 0 4.37-2.85l2.15 1.55A1.18 1.18 0 1 0 27 26.82l-2.18-1.57a9.34 9.34 0 0 0 1-4.25v-.29h2.79a1.18 1.18 0 0 0 .07-2.36zm-12.46-4.74a3.55 3.55 0 1 1 3.55-3.55 3.55 3.55 0 0 1-3.55 3.55z" />
</svg>
